{
    "has_more": false,
    "items": [
        {
            "creation_date": 1548552980,
            "down_vote_count": 0,
            "is_accepted": false,
            "last_activity_date": 1548552980,
            "owner": {
                "accept_rate": 75,
                "display_name": "slackmart",
                "link": "https://stackoverflow.com/users/977593/slackmart",
                "reputation": 2700
            },
            "question_id": 54384042,
            "score": 1,
            "share_link": "https://stackoverflow.com/a/54384377",
            "tags": [],
            "title": "Why does the docker-compose healthcheck of my mongo container always fail?",
            "up_vote_count": 1
        },
        {
            "creation_date": 1475955050,
            "down_vote_count": 0,
            "is_accepted": false,
            "last_activity_date": 1539440922,
            "last_edit_date": 1539440922,
            "owner": {
                "accept_rate": 75,
                "display_name": "slackmart",
                "link": "https://stackoverflow.com/users/977593/slackmart",
                "reputation": 2700
            },
            "question_id": 39934906,
            "score": 2,
            "share_link": "https://stackoverflow.com/a/39936515",
            "tags": [],
            "title": "Installed Virtualenv and activating virtualenv doesn&#39;t work",
            "up_vote_count": 2
        },
        {
            "creation_date": 1436332789,
            "down_vote_count": 0,
            "is_accepted": true,
            "last_activity_date": 1535450449,
            "last_edit_date": 1535450449,
            "owner": {
                "accept_rate": 75,
                "display_name": "slackmart",
                "link": "https://stackoverflow.com/users/977593/slackmart",
                "reputation": 2700
            },
            "question_id": 31282605,
            "score": 1,
            "share_link": "https://stackoverflow.com/a/31284053",
            "tags": [],
            "title": "Redirect to next url in Django with FormView",
            "up_vote_count": 1
        },
        {
            "creation_date": 1534215535,
            "down_vote_count": 0,
            "is_accepted": false,
            "last_activity_date": 1534215535,
            "owner": {
                "accept_rate": 75,
                "display_name": "slackmart",
                "link": "https://stackoverflow.com/users/977593/slackmart",
                "reputation": 2700
            },
            "question_id": 51832593,
            "score": 4,
            "share_link": "https://stackoverflow.com/a/51833105",
            "tags": [],
            "title": "TypeError: &#39;newline&#39; is an invalid keyword argument for this function",
            "up_vote_count": 4
        },
        {
            "creation_date": 1526095635,
            "down_vote_count": 0,
            "is_accepted": true,
            "last_activity_date": 1528156387,
            "last_edit_date": 1528156387,
            "owner": {
                "accept_rate": 75,
                "display_name": "slackmart",
                "link": "https://stackoverflow.com/users/977593/slackmart",
                "reputation": 2700
            },
            "question_id": 50302457,
            "score": 2,
            "share_link": "https://stackoverflow.com/a/50302571",
            "tags": [],
            "title": "Pass Queryset from decorator to function",
            "up_vote_count": 2
        },
        {
            "creation_date": 1522730987,
            "down_vote_count": 0,
            "is_accepted": true,
            "last_activity_date": 1522731320,
            "last_edit_date": 1522731320,
            "owner": {
                "accept_rate": 75,
                "display_name": "slackmart",
                "link": "https://stackoverflow.com/users/977593/slackmart",
                "reputation": 2700
            },
            "question_id": 49622193,
            "score": 2,
            "share_link": "https://stackoverflow.com/a/49622451",
            "tags": [],
            "title": "Test case for Django ModelForm with ModelChoiceField",
            "up_vote_count": 2
        },
        {
            "creation_date": 1506390762,
            "down_vote_count": 0,
            "is_accepted": true,
            "last_activity_date": 1516235585,
            "last_edit_date": 1516235585,
            "owner": {
                "accept_rate": 75,
                "display_name": "slackmart",
                "link": "https://stackoverflow.com/users/977593/slackmart",
                "reputation": 2700
            },
            "question_id": 46416571,
            "score": 2,
            "share_link": "https://stackoverflow.com/a/46416646",
            "tags": [],
            "title": "how to avoid increasing url in django",
            "up_vote_count": 2
        },
        {
            "creation_date": 1506914480,
            "down_vote_count": 0,
            "is_accepted": true,
            "last_activity_date": 1506983019,
            "last_edit_date": 1506983019,
            "owner": {
                "accept_rate": 75,
                "display_name": "slackmart",
                "link": "https://stackoverflow.com/users/977593/slackmart",
                "reputation": 2700
            },
            "question_id": 46518908,
            "score": 1,
            "share_link": "https://stackoverflow.com/a/46519063",
            "tags": [],
            "title": "Django forms submit radio button value shows up as None",
            "up_vote_count": 1
        },
        {
            "creation_date": 1499556824,
            "down_vote_count": 0,
            "is_accepted": false,
            "last_activity_date": 1499557175,
            "last_edit_date": 1499557175,
            "owner": {
                "accept_rate": 75,
                "display_name": "slackmart",
                "link": "https://stackoverflow.com/users/977593/slackmart",
                "reputation": 2700
            },
            "question_id": 44991416,
            "score": 2,
            "share_link": "https://stackoverflow.com/a/44991675",
            "tags": [],
            "title": "How do I import files in Python?",
            "up_vote_count": 2
        },
        {
            "creation_date": 1368987313,
            "down_vote_count": 0,
            "is_accepted": false,
            "last_activity_date": 1496838197,
            "last_edit_date": 1496838197,
            "owner": {
                "accept_rate": 75,
                "display_name": "slackmart",
                "link": "https://stackoverflow.com/users/977593/slackmart",
                "reputation": 2700
            },
            "question_id": 16637799,
            "score": 4,
            "share_link": "https://stackoverflow.com/a/16637905",
            "tags": [],
            "title": "sed error: &quot;invalid reference \\1 on `s&#39; command&#39;s RHS&quot;",
            "up_vote_count": 4
        },
        {
            "creation_date": 1494220888,
            "down_vote_count": 0,
            "is_accepted": false,
            "last_activity_date": 1494221476,
            "last_edit_date": 1494221476,
            "owner": {
                "accept_rate": 75,
                "display_name": "slackmart",
                "link": "https://stackoverflow.com/users/977593/slackmart",
                "reputation": 2700
            },
            "question_id": 43839731,
            "score": 0,
            "share_link": "https://stackoverflow.com/a/43840283",
            "tags": [],
            "title": "How to use itertools.groupby on a file",
            "up_vote_count": 0
        },
        {
            "creation_date": 1493472442,
            "down_vote_count": 0,
            "is_accepted": true,
            "last_activity_date": 1493472442,
            "owner": {
                "accept_rate": 75,
                "display_name": "slackmart",
                "link": "https://stackoverflow.com/users/977593/slackmart",
                "reputation": 2700
            },
            "question_id": 43696088,
            "score": 2,
            "share_link": "https://stackoverflow.com/a/43696247",
            "tags": [],
            "title": "django - redirect to a page after registering a user",
            "up_vote_count": 2
        },
        {
            "creation_date": 1492116421,
            "down_vote_count": 0,
            "is_accepted": false,
            "last_activity_date": 1492116800,
            "last_edit_date": 1492116800,
            "owner": {
                "accept_rate": 75,
                "display_name": "slackmart",
                "link": "https://stackoverflow.com/users/977593/slackmart",
                "reputation": 2700
            },
            "question_id": 43401368,
            "score": 3,
            "share_link": "https://stackoverflow.com/a/43401426",
            "tags": [],
            "title": "Python dictionary of lists, insertion and update with variable key",
            "up_vote_count": 3
        },
        {
            "creation_date": 1489359124,
            "down_vote_count": 0,
            "is_accepted": true,
            "last_activity_date": 1489360288,
            "last_edit_date": 1489360288,
            "owner": {
                "accept_rate": 75,
                "display_name": "slackmart",
                "link": "https://stackoverflow.com/users/977593/slackmart",
                "reputation": 2700
            },
            "question_id": 42754139,
            "score": 2,
            "share_link": "https://stackoverflow.com/a/42754172",
            "tags": [],
            "title": "Why do these .append() statements overwrite each other?",
            "up_vote_count": 2
        },
        {
            "creation_date": 1485508357,
            "down_vote_count": 0,
            "is_accepted": false,
            "last_activity_date": 1485508357,
            "owner": {
                "accept_rate": 75,
                "display_name": "slackmart",
                "link": "https://stackoverflow.com/users/977593/slackmart",
                "reputation": 2700
            },
            "question_id": 41890133,
            "score": 2,
            "share_link": "https://stackoverflow.com/a/41890364",
            "tags": [],
            "title": "Django 1.10 TemplateSyntaxError &#39;future&#39; is not a registered tag library",
            "up_vote_count": 2
        },
        {
            "creation_date": 1484935832,
            "down_vote_count": 1,
            "is_accepted": true,
            "last_activity_date": 1484935832,
            "owner": {
                "accept_rate": 75,
                "display_name": "slackmart",
                "link": "https://stackoverflow.com/users/977593/slackmart",
                "reputation": 2700
            },
            "question_id": 41769339,
            "score": 1,
            "share_link": "https://stackoverflow.com/a/41769893",
            "tags": [],
            "title": "Python pass arguments to callable function reference",
            "up_vote_count": 2
        },
        {
            "creation_date": 1484895481,
            "down_vote_count": 0,
            "is_accepted": true,
            "last_activity_date": 1484895908,
            "last_edit_date": 1484895908,
            "owner": {
                "accept_rate": 75,
                "display_name": "slackmart",
                "link": "https://stackoverflow.com/users/977593/slackmart",
                "reputation": 2700
            },
            "question_id": 41755783,
            "score": 2,
            "share_link": "https://stackoverflow.com/a/41757783",
            "tags": [],
            "title": "AngularJs Bind Directive parameter to mdDialog&#39;s Form",
            "up_vote_count": 2
        },
        {
            "creation_date": 1478979904,
            "down_vote_count": 0,
            "is_accepted": true,
            "last_activity_date": 1478980207,
            "last_edit_date": 1478980207,
            "owner": {
                "accept_rate": 75,
                "display_name": "slackmart",
                "link": "https://stackoverflow.com/users/977593/slackmart",
                "reputation": 2700
            },
            "question_id": 40542284,
            "score": 0,
            "share_link": "https://stackoverflow.com/a/40566923",
            "tags": [],
            "title": "Django custom test runner remove some of the default test argument",
            "up_vote_count": 0
        },
        {
            "creation_date": 1478372475,
            "down_vote_count": 0,
            "is_accepted": true,
            "last_activity_date": 1478372475,
            "owner": {
                "accept_rate": 75,
                "display_name": "slackmart",
                "link": "https://stackoverflow.com/users/977593/slackmart",
                "reputation": 2700
            },
            "question_id": 40441898,
            "score": 1,
            "share_link": "https://stackoverflow.com/a/40442060",
            "tags": [],
            "title": "Adding an object attribute value to an array Django",
            "up_vote_count": 1
        },
        {
            "creation_date": 1378653786,
            "down_vote_count": 0,
            "is_accepted": true,
            "last_activity_date": 1478352826,
            "last_edit_date": 1478352826,
            "owner": {
                "accept_rate": 91,
                "display_name": "rendon",
                "link": "https://stackoverflow.com/users/526189/rendon",
                "reputation": 2157
            },
            "question_id": 14309256,
            "score": 39,
            "share_link": "https://stackoverflow.com/a/18685375",
            "tags": [],
            "title": "Using NanoHTTPD in Android",
            "up_vote_count": 39
        },
        {
            "creation_date": 1478051299,
            "down_vote_count": 0,
            "is_accepted": true,
            "last_activity_date": 1478051679,
            "last_edit_date": 1478051679,
            "owner": {
                "accept_rate": 75,
                "display_name": "slackmart",
                "link": "https://stackoverflow.com/users/977593/slackmart",
                "reputation": 2700
            },
            "question_id": 40371196,
            "score": 1,
            "share_link": "https://stackoverflow.com/a/40371270",
            "tags": [],
            "title": "Python script to take multiple number of arguments from shell",
            "up_vote_count": 1
        }
    ],
    "quota_max": 300,
    "quota_remaining": 262
}
